<svg width="224" height="410" viewBox="0 0 224 410" fill="none" xmlns="http://www.w3.org/2000/svg">
<path opacity="0.1" fill-rule="evenodd" clip-rule="evenodd" d="M-188.368 224.89C-191.742 185.526 -169.901 150.266 -151.457 115.369C-130.212 75.1729 -116.598 21.7688 -73.5282 7.6063C-30.4612 -6.55548 12.9561 26.5069 52.7947 48.2047C85.4169 65.9722 108.174 93.8683 133.996 120.633C164.475 152.224 207.926 175.59 217.173 218.581C227.059 264.54 216.469 318.377 183.768 352.026C152.087 384.626 99.5588 375.731 55.1969 385.253C17.5133 393.342 -19.5229 415.689 -56.1037 403.516C-92.4389 391.424 -110.87 353.234 -133.709 322.388C-156.426 291.708 -185.103 262.978 -188.368 224.89Z" fill="#89ADF5"/>
</svg>
